-------------------------------------------------------------------------------
Test set: sg.gov.ntp.business.service.impl.ClassroomServiceImplTest
-------------------------------------------------------------------------------
Tests run: 6, Failures: 0, Errors: 0, Skipped: 0, Time elapsed: 4.702 sec
