-------------------------------------------------------------------------------
Test set: sg.gov.ntp.vo.StudentTest
-------------------------------------------------------------------------------
Tests run: 10, Failures: 0, Errors: 0, Skipped: 0, Time elapsed: 0.058 sec
